<?xml version="1.0" encoding="UTF-8"?>
<!DOCTYPE svg PUBLIC "-//W3C//DTD SVG 1.1//EN" "http://www.w3.org/Graphics/SVG/1.1/DTD/svg11.dtd">
<svg version="1.2" width="80.01mm" height="86.36mm" viewBox="0 0 8001 8636" preserveAspectRatio="xMidYMid" fill-rule="evenodd" stroke-width="28.222" stroke-linejoin="round" xmlns="http://www.w3.org/2000/svg" xmlns:ooo="http://xml.openoffice.org/svg/export" xmlns:xlink="http://www.w3.org/1999/xlink" xmlns:presentation="http://sun.com/xmlns/staroffice/presentation" xmlns:smil="http://www.w3.org/2001/SMIL20/" xmlns:anim="urn:oasis:names:tc:opendocument:xmlns:animation:1.0" xml:space="preserve">
 <defs class="ClipPathGroup">
  <clipPath id="presentation_clip_path" clipPathUnits="userSpaceOnUse">
   <rect x="0" y="0" width="8001" height="8636"/>
  </clipPath>
  <clipPath id="presentation_clip_path_shrink" clipPathUnits="userSpaceOnUse">
   <rect x="8" y="8" width="7985" height="8619"/>
  </clipPath>
 </defs>
 <defs class="TextShapeIndex">
  <g ooo:slide="id1" ooo:id-list="id3 id4 id5 id6 id7 id8 id9"/>
 </defs>
 <defs class="EmbeddedBulletChars">
  <g id="bullet-char-template-57356" transform="scale(0.00048828125,-0.00048828125)">
   <path d="M 580,1141 L 1163,571 580,0 -4,571 580,1141 Z"/>
  </g>
  <g id="bullet-char-template-57354" transform="scale(0.00048828125,-0.00048828125)">
   <path d="M 8,1128 L 1137,1128 1137,0 8,0 8,1128 Z"/>
  </g>
  <g id="bullet-char-template-10146" transform="scale(0.00048828125,-0.00048828125)">
   <path d="M 174,0 L 602,739 174,1481 1456,739 174,0 Z M 1358,739 L 309,1346 659,739 1358,739 Z"/>
  </g>
  <g id="bullet-char-template-10132" transform="scale(0.00048828125,-0.00048828125)">
   <path d="M 2015,739 L 1276,0 717,0 1260,543 174,543 174,936 1260,936 717,1481 1274,1481 2015,739 Z"/>
  </g>
  <g id="bullet-char-template-10007" transform="scale(0.00048828125,-0.00048828125)">
   <path d="M 0,-2 C -7,14 -16,27 -25,37 L 356,567 C 262,823 215,952 215,954 215,979 228,992 255,992 264,992 276,990 289,987 310,991 331,999 354,1012 L 381,999 492,748 772,1049 836,1024 860,1049 C 881,1039 901,1025 922,1006 886,937 835,863 770,784 769,783 710,716 594,584 L 774,223 C 774,196 753,168 711,139 L 727,119 C 717,90 699,76 672,76 641,76 570,178 457,381 L 164,-76 C 142,-110 111,-127 72,-127 30,-127 9,-110 8,-76 1,-67 -2,-52 -2,-32 -2,-23 -1,-13 0,-2 Z"/>
  </g>
  <g id="bullet-char-template-10004" transform="scale(0.00048828125,-0.00048828125)">
   <path d="M 285,-33 C 182,-33 111,30 74,156 52,228 41,333 41,471 41,549 55,616 82,672 116,743 169,778 240,778 293,778 328,747 346,684 L 369,508 C 377,444 397,411 428,410 L 1163,1116 C 1174,1127 1196,1133 1229,1133 1271,1133 1292,1118 1292,1087 L 1292,965 C 1292,929 1282,901 1262,881 L 442,47 C 390,-6 338,-33 285,-33 Z"/>
  </g>
  <g id="bullet-char-template-9679" transform="scale(0.00048828125,-0.00048828125)">
   <path d="M 813,0 C 632,0 489,54 383,161 276,268 223,411 223,592 223,773 276,916 383,1023 489,1130 632,1184 813,1184 992,1184 1136,1130 1245,1023 1353,916 1407,772 1407,592 1407,412 1353,268 1245,161 1136,54 992,0 813,0 Z"/>
  </g>
  <g id="bullet-char-template-8226" transform="scale(0.00048828125,-0.00048828125)">
   <path d="M 346,457 C 273,457 209,483 155,535 101,586 74,649 74,723 74,796 101,859 155,911 209,963 273,989 346,989 419,989 480,963 531,910 582,859 608,796 608,723 608,648 583,586 532,535 482,483 420,457 346,457 Z"/>
  </g>
  <g id="bullet-char-template-8211" transform="scale(0.00048828125,-0.00048828125)">
   <path d="M -4,459 L 1135,459 1135,606 -4,606 -4,459 Z"/>
  </g>
  <g id="bullet-char-template-61548" transform="scale(0.00048828125,-0.00048828125)">
   <path d="M 173,740 C 173,903 231,1043 346,1159 462,1274 601,1332 765,1332 928,1332 1067,1274 1183,1159 1299,1043 1357,903 1357,740 1357,577 1299,437 1183,322 1067,206 928,148 765,148 601,148 462,206 346,322 231,437 173,577 173,740 Z"/>
  </g>
 </defs>
 <defs class="TextEmbeddedBitmaps"/>
 <g>
  <g id="id2" class="Master_Slide">
   <g id="bg-id2" class="Background"/>
   <g id="bo-id2" class="BackgroundObjects"/>
  </g>
 </g>
 <g class="SlideGroup">
  <g>
   <g id="container-id1">
    <g id="id1" class="Slide" clip-path="url(#presentation_clip_path)">
     <g class="Page">
      <g class="com.sun.star.drawing.CustomShape">
       <g id="id3">
        <rect class="BoundingBox" stroke="none" fill="none" x="4714" y="88" width="1145" height="2292"/>
        <path fill="rgb(120,120,120)" stroke="none" d="M 5286,88 L 5858,2378 4714,2378 5286,88 Z M 4714,88 L 4714,88 Z M 5858,2378 L 5858,2378 Z"/>
       </g>
      </g>
      <g class="com.sun.star.drawing.CustomShape">
       <g id="id4">
        <rect class="BoundingBox" stroke="none" fill="none" x="3167" y="978" width="4236" height="2673"/>
        <path fill="rgb(120,120,120)" stroke="none" d="M 7401,2314 L 7398,2246 7390,2179 7377,2112 7358,2045 7333,1979 7304,1914 7269,1850 7229,1787 7185,1726 7135,1666 7081,1607 7022,1551 6958,1496 6890,1444 6818,1394 6743,1346 6663,1300 6580,1258 6493,1217 6404,1180 6311,1146 6216,1115 6119,1086 6019,1061 5918,1039 5815,1021 5710,1005 5605,993 5498,985 5391,980 5284,978 5177,980 5070,985 4963,993 4858,1005 4753,1021 4650,1039 4549,1061 4449,1086 4352,1115 4257,1146 4164,1180 4075,1217 3988,1258 3905,1300 3825,1346 3750,1394 3678,1444 3610,1496 3546,1551 3487,1607 3433,1666 3383,1726 3339,1787 3299,1850 3264,1914 3235,1979 3210,2045 3191,2112 3178,2179 3170,2246 3167,2314 4225,2314 4226,2280 4230,2246 4237,2213 4247,2180 4259,2147 4274,2114 4291,2082 4311,2051 4333,2020 4358,1990 4385,1961 4415,1932 4447,1905 4480,1879 4516,1854 4554,1830 4594,1807 4636,1786 4679,1766 4724,1747 4770,1730 4818,1714 4866,1700 4916,1688 4967,1677 5019,1667 5071,1660 5124,1654 5177,1649 5230,1647 5284,1646 5338,1647 5391,1649 5444,1654 5497,1660 5549,1667 5601,1677 5652,1688 5702,1700 5750,1714 5798,1730 5844,1747 5889,1766 5932,1786 5974,1807 6014,1830 6052,1854 6088,1879 6121,1905 6153,1932 6183,1961 6210,1990 6235,2020 6257,2051 6277,2082 6294,2114 6309,2147 6321,2180 6331,2213 6338,2246 6342,2280 6343,2314 7401,2314 Z M 3167,978 L 3167,978 Z M 7402,3650 L 7402,3650 Z"/>
       </g>
      </g>
      <g class="com.sun.star.drawing.CustomShape">
       <g id="id5">
        <rect class="BoundingBox" stroke="none" fill="none" x="2744" y="978" width="5082" height="1401"/>
        <path fill="rgb(120,120,120)" stroke="none" d="M 5284,978 L 7825,2378 2744,2378 5284,978 Z M 2744,978 L 2744,978 Z M 7825,2378 L 7825,2378 Z"/>
       </g>
      </g>
      <g class="com.sun.star.drawing.CustomShape">
       <g id="id6">
        <rect class="BoundingBox" stroke="none" fill="none" x="3759" y="2189" width="2964" height="3689"/>
        <path fill="rgb(120,120,120)" stroke="none" d="M 5241,5877 L 3759,5877 3759,2189 6722,2189 6722,5877 5241,5877 Z"/>
       </g>
      </g>
      <g class="com.sun.star.drawing.CustomShape">
       <g id="id7">
        <rect class="BoundingBox" stroke="none" fill="none" x="2744" y="5684" width="5081" height="637"/>
        <path fill="rgb(120,120,120)" stroke="none" d="M 5284,6320 L 2744,6320 2744,5684 7824,5684 7824,6320 5284,6320 Z"/>
       </g>
      </g>
      <g class="com.sun.star.drawing.CustomShape">
       <g id="id8">
        <rect class="BoundingBox" stroke="none" fill="none" x="3464" y="6219" width="3522" height="2202"/>
        <path fill="rgb(120,120,120)" stroke="none" d="M 6985,8420 L 3464,8420 3735,6219 6715,6219 6985,8420 Z M 6985,8420 L 6985,8420 Z M 3464,6219 L 3464,6219 Z"/>
       </g>
      </g>
      <g class="com.sun.star.drawing.CustomShape">
       <g id="id9">
        <rect class="BoundingBox" stroke="none" fill="none" x="60" y="2262" width="4830" height="2129"/>
        <path fill="rgb(120,120,120)" stroke="none" d="M 4641,4390 L 61,3897 555,2262 4641,4390 Z M 4888,3572 L 4888,3572 Z M 61,3897 L 61,3897 Z"/>
       </g>
      </g>
     </g>
    </g>
   </g>
  </g>
 </g>
</svg>